lab01/simulation/qsim/ECE385_Lab_01.msim.vcd
$comment
	File created using the following command:
		vcd file ECE385_Lab_01.msim.vcd -direction
$end
$date
	Wed Jan 24 18:39:20 2024
$end
$version
	ModelSim Version 10.5b
$end
$timescale
	1ps
$end

$scope module ECE385_Lab_01_vlg_vec_tst $end
$var reg 1 ! A $end
$var reg 1 " B $end
$var reg 1 # C $end
$var wire 1 $ Z $end

$scope module i1 $end
$var wire 1 % gnd $end
$var wire 1 & vcc $end
$var wire 1 ' unknown $end
$var tri1 1 ( devclrn $end
$var tri1 1 ) devpor $end
$var tri1 1 * devoe $end
$var wire 1 + ~QUARTUS_CREATED_GND~I_combout $end
$var wire 1 , A~input_o $end
$var wire 1 - B~input_o $end
$var wire 1 . C~input_o $end
$var wire 1 / inst2~0_combout $end
$upscope $end
$upscope $end
$enddefinitions $end
#0
$dumpvars
1!
0"
0#
0$
0%
1&
x'
1(
1)
1*
0+
1,
0-
0.
0/
$end
#50000
1"
1-
1/
1$
#80000
1#
1.
#100000
0"
0-
#120000
0#
0.
0/
0$
#150000
1"
1-
1/
1$
#170000
1#
1.
#180000
0#
0.
#220000
0"
0-
0/
0$
#280000
x"
x-
x/
x$
#360000
0"
0-
0/
0$
